<svg width="80" height="80" viewBox="0 0 80 80" fill="none" xmlns="http://www.w3.org/2000/svg">
<g id="Purpose">
<mask id="mask0" mask-type="alpha" maskUnits="userSpaceOnUse" x="0" y="0" width="80" height="80">
<rect id="Mask Copy 3" width="80" height="80" fill="white"/>
</mask>
<g mask="url(#mask0)">
<path id="XMLID_4218_" d="M47.0038 25.2114C47.2866 25.4942 47.6571 25.6355 48.0277 25.6355C48.3982 25.6355 48.7689 25.4942 49.0515 25.2114C49.617 24.646 49.617 23.7292 49.0515 23.1636L49.032 23.144C48.4666 22.5786 47.5497 22.5786 46.9841 23.144C46.4187 23.7095 46.4187 24.6263 46.9841 25.1919L47.0038 25.2114Z" fill="black" stroke="white" stroke-width="1.36"/>
<g id="XMLID_4221_">
<path fill-rule="evenodd" clip-rule="evenodd" d="M71.1588 37.5419L75.6246 33.0744C75.991 32.7078 76.1005 32.1564 75.9022 31.6776C75.7039 31.1986 75.2367 30.8863 74.7185 30.8863H65.4613C64.2513 25.9312 61.7117 21.416 58.0813 17.7841C52.806 12.5066 45.7918 9.6001 38.3311 9.6001C30.8704 9.6001 23.8562 12.5066 18.5808 17.7841C13.3053 23.0616 10.3999 30.0783 10.3999 37.5419C10.3999 45.0054 13.3053 52.0222 18.5808 57.2996C20.1496 58.869 21.873 60.2269 23.7153 61.3627L19.8553 68.1848C19.6308 68.5816 19.6339 69.0679 19.8635 69.4616C20.0929 69.8556 20.5143 70.0979 20.9702 70.0979H27.5686C28.0303 70.0979 28.4563 69.8495 28.6837 69.4475L31.413 64.6237C33.6469 65.1906 35.9664 65.4836 38.3311 65.4836C40.6958 65.4836 43.0154 65.1906 45.2492 64.6237L47.9785 69.4475C48.206 69.8495 48.632 70.0979 49.0936 70.0979H55.692C56.1479 70.0979 56.5693 69.8556 56.7989 69.4618C57.0285 69.0679 57.0316 68.5816 56.8071 68.1849L52.9471 61.3629C54.7894 60.2269 56.5128 58.8691 58.0816 57.2998C61.7106 53.6694 64.2514 49.1523 65.4613 44.1975H74.7186C75.2367 44.1975 75.704 43.8852 75.9023 43.4063C76.1007 42.9275 75.991 42.3761 75.6247 42.0095L71.1588 37.5419ZM68.816 36.2601H59.8743L62.6836 33.4498H71.6254L68.816 36.2601ZM23.1677 67.5344H26.8215L28.9014 63.8587C27.8961 63.499 26.9135 63.0797 25.9564 62.6058L23.1677 67.5344ZM53.4946 67.5344H49.8407L47.7609 63.8587C48.7661 63.499 49.7487 63.0797 50.7058 62.6058L53.4946 67.5344ZM50.6517 59.7375C52.6866 58.6032 54.577 57.1802 56.2695 55.487C59.4166 52.3387 61.663 48.4574 62.816 44.1975H62.1529C61.8131 44.1975 61.4871 44.0624 61.2469 43.8221L57.8509 40.4249C57.2325 44.6452 55.3114 48.47 52.2831 51.4993C48.5565 55.2273 43.6015 57.2805 38.3311 57.2805C33.0607 57.2805 28.1057 55.2273 24.379 51.4992C20.6523 47.7711 18.5999 42.8143 18.5999 37.5419C18.5999 32.2695 20.6523 27.3127 24.3791 23.5846C27.4657 20.4966 31.3787 18.5584 35.6946 17.9793C39.8711 17.4187 44.1926 18.2265 47.8627 20.2536C48.4822 20.5958 48.7071 21.3755 48.3651 21.9952C48.023 22.6149 47.2435 22.8398 46.6241 22.4978C39.9724 18.824 31.57 20.0162 26.191 25.3972C22.9482 28.6411 21.1624 32.9542 21.1624 37.5419C21.1624 42.1296 22.9482 46.4426 26.191 49.6865C29.4337 52.9306 33.7453 54.7171 38.3311 54.7171C42.917 54.7171 47.2285 52.9306 50.4712 49.6865C53.4379 46.7186 55.128 42.8303 55.4336 38.8236H49.7898C49.5046 41.42 48.3578 43.8252 46.4849 45.6988C44.307 47.8775 41.4112 49.0775 38.3311 49.0775C35.251 49.0775 32.3553 47.8775 30.1773 45.6987C27.9994 43.52 26.7999 40.6232 26.7999 37.5419C26.7999 34.4606 27.9994 31.5639 30.1774 29.3849C32.3553 27.2062 35.251 26.0063 38.3311 26.0063C41.4112 26.0063 44.307 27.2062 46.485 29.3852C48.3579 31.2588 49.5048 33.664 49.79 36.2603H55.4393C55.2654 33.8457 54.5859 31.4497 53.3696 29.2459C53.0277 28.6261 53.2525 27.8463 53.872 27.5042C54.4915 27.1623 55.271 27.3871 55.613 28.0068C56.7502 30.0674 57.5033 32.3333 57.8465 34.6636L61.247 31.2618C61.4873 31.0214 61.8132 30.8863 62.153 30.8863H62.8164C61.6634 26.6262 59.4179 22.7463 56.2695 19.5967C51.478 14.8034 45.1074 12.1636 38.3311 12.1636C31.5549 12.1636 25.1842 14.8034 20.3927 19.5967C15.6013 24.39 12.9624 30.763 12.9624 37.5419C12.9624 44.3207 15.6013 50.6937 20.3929 55.487C22.0854 57.1803 23.9758 58.6033 26.0106 59.7376L26.0263 59.7452C26.0462 59.7547 26.0661 59.7642 26.0857 59.7753C26.0953 59.7808 26.1044 59.7867 26.1134 59.7927L26.1135 59.7927L26.1136 59.7928L26.1137 59.7929C26.1192 59.7965 26.1247 59.8001 26.1303 59.8036C27.6911 60.6627 29.336 61.3524 31.0426 61.8617C31.1099 61.875 31.1762 61.8948 31.2418 61.9194C33.5166 62.5778 35.8974 62.9202 38.3311 62.9202C40.7649 62.9202 43.1457 62.5778 45.4204 61.9193C45.4859 61.8947 45.5522 61.8749 45.6194 61.8616C47.3261 61.3522 48.971 60.6625 50.5319 59.8035C50.5376 59.8 50.5432 59.7963 50.5487 59.7927L50.5488 59.7926L50.5488 59.7926C50.5579 59.7866 50.5669 59.7807 50.5765 59.7752C50.6013 59.7612 50.6266 59.7497 50.6517 59.7375ZM42.5157 35.125C42.1619 34.5119 41.3783 34.3019 40.7655 34.6559L37.6905 36.4319C37.2941 36.6608 37.0499 37.0839 37.0499 37.5419C37.0499 37.9998 37.2941 38.4229 37.6905 38.6518L40.7655 40.4278C40.9673 40.5443 41.1875 40.5997 41.405 40.5997C41.8478 40.5997 42.2784 40.3699 42.5157 39.9587C42.7236 39.5985 42.7355 39.1798 42.5868 38.8236H47.2085C46.937 40.7338 46.061 42.4976 44.6729 43.8861C42.979 45.5808 40.7268 46.514 38.3311 46.514C35.9354 46.514 33.6833 45.5808 31.9892 43.8861C30.2953 42.1915 29.3624 39.9385 29.3624 37.5419C29.3624 35.1453 30.2953 32.8923 31.9893 31.1975C33.6833 29.503 35.9354 28.5697 38.3311 28.5697C40.7268 28.5697 42.979 29.503 44.673 31.1977C46.061 32.5862 46.9371 34.35 47.2086 36.2601H42.5869C42.7355 35.9038 42.7236 35.4852 42.5157 35.125ZM59.8743 38.8236L62.6836 41.6339H71.6254L68.816 38.8236H59.8743Z" fill="black"/>
<path d="M75.6246 33.0744L75.2356 32.6856L75.2356 32.6856L75.6246 33.0744ZM71.1588 37.5419L70.7698 37.153L70.3811 37.5419L70.7698 37.9307L71.1588 37.5419ZM75.9022 31.6776L75.394 31.888L75.3941 31.888L75.9022 31.6776ZM65.4613 30.8863L64.927 31.0168L65.0294 31.4363H65.4613V30.8863ZM58.0813 17.7841L57.6923 18.1729L57.6923 18.1729L58.0813 17.7841ZM18.5808 17.7841L18.9698 18.1729L18.9698 18.1729L18.5808 17.7841ZM18.5808 57.2996L18.9698 56.9108L18.9698 56.9108L18.5808 57.2996ZM23.7153 61.3627L24.194 61.6336L24.4548 61.1726L24.0039 60.8946L23.7153 61.3627ZM19.8553 68.1848L19.3766 67.9139L19.3765 67.914L19.8553 68.1848ZM19.8635 69.4616L20.3387 69.1848L20.3386 69.1846L19.8635 69.4616ZM28.6837 69.4475L28.205 69.1767L28.205 69.1767L28.6837 69.4475ZM31.413 64.6237L31.5483 64.0906L31.1412 63.9873L30.9343 64.3529L31.413 64.6237ZM45.2492 64.6237L45.7279 64.3529L45.5211 63.9873L45.1139 64.0906L45.2492 64.6237ZM47.9785 69.4475L48.4572 69.1767V69.1767L47.9785 69.4475ZM56.8071 68.1849L56.3284 68.4557L56.3284 68.4558L56.8071 68.1849ZM52.9471 61.3629L52.6584 60.8947L52.2076 61.1727L52.4684 61.6337L52.9471 61.3629ZM58.0816 57.2998L57.6926 56.9109L58.0816 57.2998ZM65.4613 44.1975V43.6475H65.0294L64.927 44.0671L65.4613 44.1975ZM75.6247 42.0095L76.0137 41.6207L76.0137 41.6206L75.6247 42.0095ZM59.8743 36.2601L59.4853 35.8713L58.5468 36.8101H59.8743V36.2601ZM68.816 36.2601V36.8101H69.0439L69.205 36.649L68.816 36.2601ZM62.6836 33.4498V32.8998H62.4557L62.2946 33.061L62.6836 33.4498ZM71.6254 33.4498L72.0144 33.8387L72.9529 32.8998H71.6254V33.4498ZM26.8215 67.5344V68.0844H27.1423L27.3002 67.8053L26.8215 67.5344ZM23.1677 67.5344L22.689 67.2636L22.2245 68.0844H23.1677V67.5344ZM28.9014 63.8587L29.3801 64.1295L29.7018 63.5609L29.0867 63.3408L28.9014 63.8587ZM25.9564 62.6058L26.2005 62.1129L25.7341 61.8819L25.4778 62.3349L25.9564 62.6058ZM49.8407 67.5344L49.362 67.8053L49.52 68.0844H49.8407V67.5344ZM53.4946 67.5344V68.0844H54.4377L53.9733 67.2636L53.4946 67.5344ZM47.7609 63.8587L47.5756 63.3408L46.9604 63.5609L47.2822 64.1295L47.7609 63.8587ZM50.7058 62.6058L51.1845 62.3349L50.9282 61.8819L50.4617 62.1129L50.7058 62.6058ZM56.2695 55.487L55.8805 55.0982L56.2695 55.487ZM50.6517 59.7375L50.8917 60.2324L50.9058 60.2255L50.9195 60.2179L50.6517 59.7375ZM62.816 44.1975L63.3469 44.3412L63.5347 43.6475H62.816V44.1975ZM61.2469 43.8221L61.6359 43.4333H61.6359L61.2469 43.8221ZM57.8509 40.4249L58.2399 40.036L57.4656 39.2614L57.3068 40.3451L57.8509 40.4249ZM52.2831 51.4993L51.8942 51.1105L51.8942 51.1105L52.2831 51.4993ZM24.379 51.4992L24.7679 51.1103L24.379 51.4992ZM24.3791 23.5846L24.7681 23.9734L24.7681 23.9734L24.3791 23.5846ZM35.6946 17.9793L35.7677 18.5244L35.7677 18.5244L35.6946 17.9793ZM47.8627 20.2536L48.1287 19.7722L48.1286 19.7722L47.8627 20.2536ZM48.3651 21.9952L48.8466 22.261L48.8466 22.2609L48.3651 21.9952ZM46.6241 22.4978L46.3582 22.9792L46.3583 22.9793L46.6241 22.4978ZM26.191 25.3972L26.58 25.786L26.58 25.786L26.191 25.3972ZM26.191 49.6865L26.58 49.2977L26.58 49.2977L26.191 49.6865ZM50.4712 49.6865L50.8602 50.0754H50.8602L50.4712 49.6865ZM55.4336 38.8236L55.982 38.8654L56.0272 38.2736H55.4336V38.8236ZM49.7898 38.8236V38.2736H49.2969L49.2431 38.7635L49.7898 38.8236ZM46.4849 45.6988L46.8738 46.0877L46.4849 45.6988ZM30.1773 45.6987L30.5662 45.3098L30.1773 45.6987ZM30.1774 29.3849L29.7884 28.9961L29.7884 28.9961L30.1774 29.3849ZM46.485 29.3852L46.096 29.774L46.096 29.774L46.485 29.3852ZM49.79 36.2603L49.2433 36.3203L49.2971 36.8103H49.79V36.2603ZM55.4393 36.2603V36.8103H56.0303L55.9878 36.2208L55.4393 36.2603ZM53.3696 29.2459L52.8881 29.5116L52.8881 29.5116L53.3696 29.2459ZM53.872 27.5042L53.6062 27.0227L53.6061 27.0228L53.872 27.5042ZM55.613 28.0068L55.1314 28.2725L55.1315 28.2726L55.613 28.0068ZM57.8465 34.6636L57.3023 34.7437L57.4617 35.8264L58.2354 35.0524L57.8465 34.6636ZM61.247 31.2618L60.858 30.8729L61.247 31.2618ZM62.8164 30.8863V31.4363H63.5351L63.3473 30.7427L62.8164 30.8863ZM56.2695 19.5967L55.8805 19.9855L56.2695 19.5967ZM20.3927 19.5967L20.0038 19.2079L20.3927 19.5967ZM20.3929 55.487L20.7819 55.0982L20.7818 55.0982L20.3929 55.487ZM26.0106 59.7376L25.7428 60.218L25.7573 60.2261L25.7722 60.2333L26.0106 59.7376ZM26.0263 59.7452L25.7879 60.2408L25.7887 60.2412L26.0263 59.7452ZM26.0857 59.7753L26.3582 59.2976L26.3562 59.2964L26.0857 59.7753ZM26.1134 59.7927L25.8109 60.252L25.8254 60.2616L25.8405 60.2702L26.1134 59.7927ZM26.1135 59.7927L26.4109 59.3301L26.3988 59.3223L26.3863 59.3152L26.1135 59.7927ZM26.1136 59.7928L25.8162 60.2555L25.8199 60.2579L26.1136 59.7928ZM26.1137 59.7929L26.4164 59.3336L26.4074 59.3279L26.1137 59.7929ZM26.1303 59.8036L25.8392 60.2703L25.8519 60.2782L25.8651 60.2855L26.1303 59.8036ZM31.0426 61.8617L30.8853 62.3887L30.9102 62.3962L30.9357 62.4012L31.0426 61.8617ZM31.2418 61.9194L31.0487 62.4344L31.0685 62.4418L31.0889 62.4477L31.2418 61.9194ZM45.4204 61.9193L45.5733 62.4476L45.5939 62.4416L45.6139 62.4341L45.4204 61.9193ZM45.6194 61.8616L45.7265 62.4011L45.7519 62.396L45.7767 62.3886L45.6194 61.8616ZM50.5319 59.8035L50.7971 60.2854L50.8104 60.278L50.8234 60.27L50.5319 59.8035ZM50.5487 59.7927L50.2657 59.321L50.2557 59.327L50.246 59.3334L50.5487 59.7927ZM50.5488 59.7926L50.8318 60.2642L50.843 60.2575L50.8539 60.2502L50.5488 59.7926ZM50.5488 59.7926L50.2463 59.3332L50.2438 59.3349L50.5488 59.7926ZM50.5765 59.7752L50.306 59.2963L50.304 59.2975L50.5765 59.7752ZM40.7655 34.6559L41.0406 35.1322L41.0406 35.1322L40.7655 34.6559ZM42.5157 35.125L42.0393 35.3999L42.0394 35.4L42.5157 35.125ZM37.6905 36.4319L37.9655 36.9082L37.9656 36.9082L37.6905 36.4319ZM37.6905 38.6518L37.9656 38.1756L37.9655 38.1756L37.6905 38.6518ZM40.7655 40.4278L40.4904 40.9041L40.4905 40.9041L40.7655 40.4278ZM42.5157 39.9587L42.0394 39.6837L42.0393 39.6838L42.5157 39.9587ZM42.5868 38.8236V38.2736H41.7611L42.0793 39.0356L42.5868 38.8236ZM47.2085 38.8236L47.753 38.901L47.8422 38.2736H47.2085V38.8236ZM44.6729 43.8861L44.284 43.4972L44.2839 43.4972L44.6729 43.8861ZM31.9892 43.8861L32.3782 43.4972L31.9892 43.8861ZM31.9893 31.1975L31.6003 30.8087L31.9893 31.1975ZM44.673 31.1977L44.2841 31.5865L44.673 31.1977ZM47.2086 36.2601V36.8101H47.8423L47.7532 36.1827L47.2086 36.2601ZM42.5869 36.2601L42.0793 36.0484L41.7616 36.8101H42.5869V36.2601ZM62.6836 41.6339L62.2946 42.0228L62.4557 42.1839H62.6836V41.6339ZM59.8743 38.8236V38.2736H58.5468L59.4853 39.2124L59.8743 38.8236ZM71.6254 41.6339V42.1839H72.9529L72.0144 41.2451L71.6254 41.6339ZM68.816 38.8236L69.205 38.4348L69.0439 38.2736H68.816V38.8236ZM75.2356 32.6856L70.7698 37.153L71.5477 37.9307L76.0135 33.4632L75.2356 32.6856ZM75.3941 31.888C75.5073 32.1615 75.4447 32.4763 75.2356 32.6856L76.0135 33.4632C76.5373 32.9393 76.6937 32.1514 76.4103 31.4671L75.3941 31.888ZM74.7185 31.4363C75.0142 31.4363 75.2808 31.6145 75.394 31.888L76.4104 31.4671C76.1269 30.7827 75.4593 30.3363 74.7185 30.3363V31.4363ZM65.4613 31.4363H74.7185V30.3363H65.4613V31.4363ZM57.6923 18.1729C61.2518 21.7339 63.741 26.1598 64.927 31.0168L65.9956 30.7559C64.7616 25.7026 62.1716 21.0981 58.4703 17.3953L57.6923 18.1729ZM38.3311 10.1501C45.6459 10.1501 52.5202 12.9986 57.6923 18.1729L58.4703 17.3953C53.0919 12.0145 45.9378 9.0501 38.3311 9.0501V10.1501ZM18.9698 18.1729C24.1421 12.9986 31.0163 10.1501 38.3311 10.1501V9.0501C30.7245 9.0501 23.5704 12.0145 18.1918 17.3953L18.9698 18.1729ZM10.9499 37.5419C10.9499 30.2241 13.7974 23.3473 18.9698 18.1729L18.1918 17.3953C12.8132 22.7759 9.8499 29.9325 9.8499 37.5419H10.9499ZM18.9698 56.9108C13.7974 51.7366 10.9499 44.8596 10.9499 37.5419H9.8499C9.8499 45.1512 12.8132 52.3079 18.1918 57.6885L18.9698 56.9108ZM24.0039 60.8946C22.1979 59.7811 20.5082 58.4498 18.9698 56.9108L18.1918 57.6885C19.7909 59.2882 21.548 60.6726 23.4266 61.8309L24.0039 60.8946ZM20.3339 68.4556L24.194 61.6336L23.2366 61.0919L19.3766 67.9139L20.3339 68.4556ZM20.3386 69.1846C20.2076 68.9599 20.2057 68.6822 20.334 68.4556L19.3765 67.914C19.0558 68.4809 19.0601 69.1758 19.3883 69.7387L20.3386 69.1846ZM20.9702 69.5479C20.7101 69.5479 20.4697 69.4097 20.3387 69.1848L19.3882 69.7384C19.7162 70.3016 20.3186 70.6479 20.9702 70.6479V69.5479ZM27.5686 69.5479H20.9702V70.6479H27.5686V69.5479ZM28.205 69.1767C28.0752 69.4061 27.832 69.5479 27.5686 69.5479V70.6479C28.2285 70.6479 28.8374 70.2928 29.1624 69.7184L28.205 69.1767ZM30.9343 64.3529L28.205 69.1767L29.1624 69.7184L31.8917 64.8946L30.9343 64.3529ZM38.3311 64.9336C36.012 64.9336 33.7379 64.6463 31.5483 64.0906L31.2777 65.1568C33.5559 65.735 35.9209 66.0336 38.3311 66.0336V64.9336ZM45.1139 64.0906C42.9244 64.6463 40.6502 64.9336 38.3311 64.9336V66.0336C40.7413 66.0336 43.1064 65.735 45.3845 65.1568L45.1139 64.0906ZM48.4572 69.1767L45.7279 64.3529L44.7705 64.8946L47.4998 69.7184L48.4572 69.1767ZM49.0936 69.5479C48.8302 69.5479 48.5871 69.4061 48.4572 69.1767L47.4998 69.7184C47.8249 70.2928 48.4338 70.6479 49.0936 70.6479V69.5479ZM55.692 69.5479H49.0936V70.6479H55.692V69.5479ZM56.3237 69.1848C56.1926 69.4097 55.9521 69.5479 55.692 69.5479V70.6479C56.3437 70.6479 56.946 70.3016 57.2741 69.7387L56.3237 69.1848ZM56.3284 68.4558C56.4566 68.6822 56.4548 68.9599 56.3237 69.1848L57.2741 69.7387C57.6022 69.1758 57.6066 68.481 57.2858 67.914L56.3284 68.4558ZM52.4684 61.6337L56.3284 68.4557L57.2858 67.914L53.4258 61.092L52.4684 61.6337ZM57.6926 56.9109C56.1542 58.45 54.4644 59.7811 52.6584 60.8947L53.2358 61.831C55.1144 60.6726 56.8715 59.2883 58.4706 57.6886L57.6926 56.9109ZM64.927 44.0671C63.7411 48.9237 61.2507 53.3515 57.6926 56.9109L58.4706 57.6886C62.1705 53.9873 64.7618 49.3809 65.9956 44.328L64.927 44.0671ZM74.7186 43.6475H65.4613V44.7475H74.7186V43.6475ZM75.3942 43.1958C75.2809 43.4693 75.0141 43.6475 74.7186 43.6475V44.7475C75.4593 44.7475 76.1271 44.301 76.4105 43.6168L75.3942 43.1958ZM75.2356 42.3982C75.4448 42.6076 75.5074 42.9225 75.3942 43.1958L76.4105 43.6168C76.6939 42.9324 76.5372 42.1445 76.0137 41.6207L75.2356 42.3982ZM70.7698 37.9307L75.2357 42.3983L76.0137 41.6206L71.5477 37.153L70.7698 37.9307ZM59.8743 36.8101H68.816V35.7101H59.8743V36.8101ZM62.2946 33.061L59.4853 35.8713L60.2633 36.649L63.0725 33.8386L62.2946 33.061ZM71.6254 32.8998H62.6836V33.9998H71.6254V32.8998ZM69.205 36.649L72.0144 33.8387L71.2364 33.061L68.427 35.8713L69.205 36.649ZM26.8215 66.9844H23.1677V68.0844H26.8215V66.9844ZM28.4227 63.5878L26.3429 67.2636L27.3002 67.8053L29.3801 64.1295L28.4227 63.5878ZM25.7124 63.0986C26.688 63.5818 27.6902 64.0095 28.7161 64.3765L29.0867 63.3408C28.102 62.9885 27.139 62.5777 26.2005 62.1129L25.7124 63.0986ZM23.6464 67.8053L26.4351 62.8766L25.4778 62.3349L22.689 67.2636L23.6464 67.8053ZM49.8407 68.0844H53.4946V66.9844H49.8407V68.0844ZM47.2822 64.1295L49.362 67.8053L50.3194 67.2636L48.2395 63.5878L47.2822 64.1295ZM50.4617 62.1129C49.5232 62.5777 48.5602 62.9885 47.5756 63.3408L47.9461 64.3765C48.972 64.0095 49.9742 63.5818 50.9499 63.0986L50.4617 62.1129ZM53.9733 67.2636L51.1845 62.3349L50.2271 62.8766L53.0159 67.8053L53.9733 67.2636ZM55.8805 55.0982C54.2239 56.7554 52.3744 58.1476 50.3839 59.2571L50.9195 60.2179C52.9989 59.0588 54.93 57.605 56.6585 55.8759L55.8805 55.0982ZM62.2851 44.0538C61.1573 48.2206 58.96 52.0175 55.8805 55.0982L56.6585 55.8759C59.8732 52.6599 62.1687 48.6941 63.3469 44.3412L62.2851 44.0538ZM62.1529 44.7475H62.816V43.6475H62.1529V44.7475ZM60.8579 44.2109C61.2013 44.5544 61.6671 44.7475 62.1529 44.7475V43.6475C61.959 43.6475 61.773 43.5704 61.6359 43.4333L60.8579 44.2109ZM57.462 40.8137L60.8579 44.2109L61.6359 43.4333L58.2399 40.036L57.462 40.8137ZM52.6721 51.8881C55.7838 48.7754 57.7595 44.8423 58.3951 40.5046L57.3068 40.3451C56.7055 44.4481 54.839 48.1647 51.8942 51.1105L52.6721 51.8881ZM38.3311 57.8305C43.7475 57.8305 48.8424 55.7193 52.6721 51.8881L51.8942 51.1105C48.2707 54.7353 43.4556 56.7305 38.3311 56.7305V57.8305ZM23.99 51.888C27.8199 55.7193 32.9148 57.8305 38.3311 57.8305V56.7305C33.2066 56.7305 28.3916 54.7353 24.7679 51.1103L23.99 51.888ZM18.0499 37.5419C18.0499 42.9601 20.1602 48.0568 23.99 51.888L24.7679 51.1103C21.1444 47.4854 19.1499 42.6685 19.1499 37.5419H18.0499ZM23.9901 23.1957C20.1602 27.0271 18.0499 32.1237 18.0499 37.5419H19.1499C19.1499 32.4153 21.1444 27.5984 24.7681 23.9734L23.9901 23.1957ZM35.6214 17.4342C31.1856 18.0294 27.1618 20.0227 23.9901 23.1957L24.7681 23.9734C27.7697 20.9705 31.5717 19.0874 35.7677 18.5244L35.6214 17.4342ZM48.1286 19.7722C44.3547 17.6878 39.9142 16.8579 35.6214 17.4342L35.7677 18.5244C39.8279 17.9794 44.0305 18.7653 47.5968 20.7351L48.1286 19.7722ZM48.8466 22.2609C49.3353 21.3755 49.014 20.2613 48.1287 19.7722L47.5968 20.735C47.9503 20.9304 48.0789 21.3755 47.8835 21.7295L48.8466 22.2609ZM46.3583 22.9793C47.2436 23.4681 48.3577 23.1467 48.8466 22.261L47.8836 21.7294C47.6883 22.0832 47.2434 22.2114 46.89 22.0163L46.3583 22.9793ZM26.58 25.786C31.786 20.5781 39.9214 19.4241 46.3582 22.9792L46.89 22.0163C40.0234 18.2238 31.354 19.4544 25.8021 25.0084L26.58 25.786ZM21.7124 37.5419C21.7124 33.1 23.4403 28.9268 26.58 25.786L25.8021 25.0084C22.4561 28.3555 20.6124 32.8084 20.6124 37.5419H21.7124ZM26.58 49.2977C23.4403 46.1569 21.7124 41.9838 21.7124 37.5419H20.6124C20.6124 42.2754 22.4561 46.7283 25.8021 50.0754L26.58 49.2977ZM38.3311 54.1671C33.8912 54.1671 29.7196 52.4386 26.58 49.2977L25.802 50.0754C29.1479 53.4226 33.5993 55.2671 38.3311 55.2671V54.1671ZM50.0822 49.2977C46.9426 52.4386 42.771 54.1671 38.3311 54.1671V55.2671C43.0629 55.2671 47.5144 53.4226 50.8602 50.0754L50.0822 49.2977ZM54.8852 38.7818C54.5892 42.663 52.9522 46.4265 50.0822 49.2977L50.8602 50.0754C53.9236 47.0106 55.6669 42.9976 55.982 38.8654L54.8852 38.7818ZM49.7898 39.3736H55.4336V38.2736H49.7898V39.3736ZM46.8738 46.0877C48.8352 44.1255 50.0377 41.6044 50.3366 38.8837L49.2431 38.7635C48.9716 41.2356 47.8804 43.5248 46.0959 45.31L46.8738 46.0877ZM38.3311 49.6275C41.5572 49.6275 44.5928 48.3695 46.8738 46.0877L46.0959 45.31C44.0211 47.3855 41.2653 48.5275 38.3311 48.5275V49.6275ZM29.7883 46.0875C32.0694 48.3695 35.1051 49.6275 38.3311 49.6275V48.5275C35.3969 48.5275 32.6411 47.3855 30.5662 45.3098L29.7883 46.0875ZM26.2499 37.5419C26.2499 40.769 27.5073 43.8057 29.7883 46.0875L30.5662 45.3098C28.4915 43.2343 27.3499 40.4774 27.3499 37.5419H26.2499ZM29.7884 28.9961C27.5073 31.2782 26.2499 34.3148 26.2499 37.5419H27.3499C27.3499 34.6064 28.4915 31.8495 30.5664 29.7737L29.7884 28.9961ZM38.3311 25.4563C35.1051 25.4563 32.0694 26.7142 29.7884 28.9961L30.5664 29.7738C32.6411 27.6982 35.3969 26.5563 38.3311 26.5563V25.4563ZM46.874 28.9964C44.5929 26.7142 41.5572 25.4563 38.3311 25.4563V26.5563C41.2653 26.5563 44.0211 27.6982 46.096 29.774L46.874 28.9964ZM50.3367 36.2002C50.0378 33.4796 48.8354 30.9585 46.874 28.9963L46.096 29.774C47.8805 31.5592 48.9717 33.8484 49.2433 36.3203L50.3367 36.2002ZM55.4393 35.7103H49.79V36.8103H55.4393V35.7103ZM52.8881 29.5116C54.0646 31.6432 54.7223 33.9617 54.8907 36.2998L55.9878 36.2208C55.8085 33.7298 55.1073 31.2561 53.8512 28.9801L52.8881 29.5116ZM53.6061 27.0228C52.7206 27.5118 52.3995 28.6262 52.8881 29.5116L53.8512 28.9801C53.6559 28.6261 53.7845 28.1809 54.1379 27.9857L53.6061 27.0228ZM56.0945 27.7411C55.6057 26.8553 54.4915 26.534 53.6062 27.0227L54.1378 27.9857C54.4915 27.7905 54.9363 27.9189 55.1314 28.2725L56.0945 27.7411ZM58.3906 34.5835C58.0381 32.1897 57.2644 29.8608 56.0945 27.741L55.1315 28.2726C56.2361 30.2741 56.9686 32.4769 57.3023 34.7437L58.3906 34.5835ZM60.858 30.8729L57.4575 34.2748L58.2354 35.0524L61.636 31.6506L60.858 30.8729ZM62.153 30.3363C61.6672 30.3363 61.2014 30.5295 60.858 30.8729L61.636 31.6506C61.7731 31.5134 61.9592 31.4363 62.153 31.4363V30.3363ZM62.8164 30.3363H62.153V31.4363H62.8164V30.3363ZM55.8805 19.9855C58.9613 23.0675 61.1577 26.863 62.2855 31.03L63.3473 30.7427C62.1691 26.3895 59.8745 22.4251 56.6585 19.2079L55.8805 19.9855ZM38.3311 12.7136C44.9615 12.7136 51.1922 15.2954 55.8805 19.9855L56.6585 19.2079C51.7639 14.3114 45.2533 11.6136 38.3311 11.6136V12.7136ZM20.7817 19.9855C25.4701 15.2954 31.7008 12.7136 38.3311 12.7136V11.6136C31.4089 11.6136 24.8984 14.3114 20.0038 19.2079L20.7817 19.9855ZM13.5124 37.5419C13.5124 30.9088 16.0934 24.6757 20.7817 19.9855L20.0038 19.2079C15.1092 24.1043 12.4124 30.6172 12.4124 37.5419H13.5124ZM20.7818 55.0982C16.0934 50.408 13.5124 44.1749 13.5124 37.5419H12.4124C12.4124 44.4665 15.1092 50.9794 20.0039 55.8759L20.7818 55.0982ZM26.2784 59.2572C24.288 58.1477 22.4384 56.7555 20.7819 55.0982L20.0039 55.8758C21.7324 57.6051 23.6635 59.0589 25.7428 60.218L26.2784 59.2572ZM26.2647 59.2495L26.2491 59.242L25.7722 60.2333L25.7879 60.2408L26.2647 59.2495ZM26.3562 59.2964C26.3179 59.2748 26.2813 59.2575 26.2639 59.2491L25.7887 60.2412C25.7993 60.2463 25.805 60.249 25.8101 60.2515C25.8146 60.2538 25.8158 60.2545 25.8152 60.2542L26.3562 59.2964ZM26.416 59.3334C26.4092 59.329 26.3856 59.3132 26.3582 59.2976L25.8132 60.2531C25.8081 60.2502 25.8049 60.2481 25.8047 60.248C25.8045 60.2479 25.8048 60.2481 25.8059 60.2488C25.8071 60.2495 25.8084 60.2504 25.8109 60.252L26.416 59.3334ZM26.3863 59.3152L26.3863 59.3152L25.8405 60.2702L25.8406 60.2703L26.3863 59.3152ZM26.411 59.3302L26.4109 59.3301L25.816 60.2554L25.8162 60.2555L26.411 59.3302ZM26.4074 59.3279L26.4073 59.3278L25.8199 60.2579L25.82 60.2579L26.4074 59.3279ZM26.4215 59.337C26.4224 59.3376 26.4227 59.3378 26.4217 59.3372C26.4206 59.3365 26.4193 59.3356 26.4163 59.3336L25.8111 60.2522C25.8156 60.2552 25.8268 60.2625 25.8392 60.2703L26.4215 59.337ZM31.1999 61.3347C29.5309 60.8366 27.9222 60.162 26.3955 59.3218L25.8651 60.2855C27.46 61.1633 29.1411 61.8681 30.8853 62.3887L31.1999 61.3347ZM31.435 61.4044C31.3459 61.371 31.2506 61.3422 31.1495 61.3222L30.9357 62.4012C30.9692 62.4079 31.0065 62.4186 31.0487 62.4344L31.435 61.4044ZM38.3311 62.3702C35.9491 62.3702 33.6198 62.0351 31.3948 61.3911L31.0889 62.4477C33.4133 63.1205 35.8456 63.4702 38.3311 63.4702V62.3702ZM45.2674 61.391C43.0424 62.0351 40.7131 62.3702 38.3311 62.3702V63.4702C40.8166 63.4702 43.2489 63.1205 45.5733 62.4476L45.2674 61.391ZM45.5123 61.3221C45.4115 61.3421 45.3161 61.3709 45.2269 61.4044L45.6139 62.4341C45.6557 62.4184 45.693 62.4077 45.7265 62.4011L45.5123 61.3221ZM50.2668 59.3217C48.7399 60.1619 47.1312 60.8364 45.4621 61.3346L45.7767 62.3886C47.5211 61.868 49.2021 61.1631 50.7971 60.2854L50.2668 59.3217ZM50.246 59.3334C50.243 59.3354 50.2416 59.3363 50.2405 59.3371C50.2395 59.3377 50.2397 59.3376 50.2405 59.3371L50.8234 60.27C50.8357 60.2623 50.8468 60.2549 50.8514 60.2519L50.246 59.3334ZM50.2658 59.321L50.2657 59.321L50.8317 60.2643L50.8318 60.2642L50.2658 59.321ZM50.2438 59.3349L50.2437 59.335L50.8539 60.2502L50.8539 60.2502L50.2438 59.3349ZM50.304 59.2975C50.2767 59.3131 50.2531 59.3288 50.2463 59.3333L50.8514 60.2519C50.8538 60.2503 50.8551 60.2494 50.8563 60.2487C50.8574 60.248 50.8577 60.2478 50.8575 60.2479C50.8573 60.248 50.8541 60.25 50.8491 60.2529L50.304 59.2975ZM50.4118 59.2426C50.4027 59.247 50.3506 59.2711 50.306 59.2963L50.847 60.2541C50.8461 60.2546 50.8479 60.2535 50.8557 60.2497C50.8596 60.2478 50.864 60.2457 50.8702 60.2427C50.8758 60.24 50.8838 60.2362 50.8917 60.2324L50.4118 59.2426ZM41.0406 35.1322C41.3903 34.9302 41.8374 35.0499 42.0393 35.3999L42.9921 34.8502C42.4865 33.9738 41.3663 33.6736 40.4904 34.1797L41.0406 35.1322ZM37.9656 36.9082L41.0406 35.1322L40.4904 34.1796L37.4154 35.9556L37.9656 36.9082ZM37.5999 37.5419C37.5999 37.2803 37.7393 37.0388 37.9655 36.9082L37.4155 35.9556C36.8488 36.2828 36.4999 36.8875 36.4999 37.5419H37.5999ZM37.9655 38.1756C37.7393 38.0449 37.5999 37.8034 37.5999 37.5419H36.4999C36.4999 38.1962 36.8488 38.8009 37.4155 39.1281L37.9655 38.1756ZM41.0406 39.9515L37.9656 38.1756L37.4154 39.1281L40.4904 40.9041L41.0406 39.9515ZM41.405 40.0497C41.2815 40.0497 41.1565 40.0185 41.0405 39.9515L40.4905 40.9041C40.7781 41.0702 41.0936 41.1497 41.405 41.1497V40.0497ZM42.0393 39.6838C41.9042 39.9179 41.6593 40.0497 41.405 40.0497V41.1497C42.0362 41.1497 42.6526 40.8219 42.992 40.2336L42.0393 39.6838ZM42.0793 39.0356C42.1653 39.2415 42.1572 39.4795 42.0394 39.6837L42.992 40.2337C43.29 39.7175 43.3058 39.118 43.0943 38.6116L42.0793 39.0356ZM47.2085 38.2736H42.5868V39.3736H47.2085V38.2736ZM45.0619 44.2749C46.5341 42.8023 47.4648 40.9293 47.753 38.901L46.664 38.7462C46.4093 40.5383 45.588 42.1928 44.284 43.4972L45.0619 44.2749ZM38.3311 47.064C40.8727 47.064 43.2648 46.0728 45.0619 44.2749L44.2839 43.4972C42.6931 45.0888 40.5809 45.964 38.3311 45.964V47.064ZM31.6002 44.2749C33.3974 46.0728 35.7895 47.064 38.3311 47.064V45.964C36.0814 45.964 33.9691 45.0888 32.3782 43.4972L31.6002 44.2749ZM28.8124 37.5419C28.8124 40.0842 29.8032 42.4772 31.6002 44.2749L32.3782 43.4972C30.7874 41.9058 29.9124 39.7927 29.9124 37.5419H28.8124ZM31.6003 30.8087C29.8032 32.6066 28.8124 34.9995 28.8124 37.5419H29.9124C29.9124 35.2911 30.7874 33.1779 32.3783 31.5864L31.6003 30.8087ZM38.3311 28.0197C35.7895 28.0197 33.3974 29.011 31.6003 30.8087L32.3783 31.5864C33.9691 29.995 36.0814 29.1197 38.3311 29.1197V28.0197ZM45.062 30.8088C43.2648 29.011 40.8727 28.0197 38.3311 28.0197V29.1197C40.5809 29.1197 42.6931 29.995 44.2841 31.5865L45.062 30.8088ZM47.7532 36.1827C47.4649 34.1544 46.5341 32.2814 45.062 30.8088L44.2841 31.5865C45.588 32.8909 46.4094 34.5455 46.6641 36.3375L47.7532 36.1827ZM42.5869 36.8101H47.2086V35.7101H42.5869V36.8101ZM42.0394 35.4C42.1572 35.6042 42.1653 35.8421 42.0793 36.0484L43.0945 36.4719C43.3057 35.9655 43.29 35.3662 42.992 34.85L42.0394 35.4ZM63.0725 41.2451L60.2633 38.4348L59.4853 39.2124L62.2946 42.0228L63.0725 41.2451ZM71.6254 41.0839H62.6836V42.1839H71.6254V41.0839ZM68.427 39.2124L71.2364 42.0228L72.0144 41.2451L69.205 38.4348L68.427 39.2124ZM59.8743 39.3736H68.816V38.2736H59.8743V39.3736Z" fill="white"/>
</g>
<g id="Path 20">
<path fill-rule="evenodd" clip-rule="evenodd" d="M35.9596 53.1414C35.9596 53.1414 18.6125 47.1043 23.4577 32.3767C28.303 17.6492 47.4781 22.4842 50.9416 26.469C54.405 30.4537 55.204 41.4469 48.8782 49.2022C42.5524 56.9575 35.9596 53.1414 35.9596 53.1414Z" fill="#FEDD00" style="mix-blend-mode:multiply"/>
</g>
</g>
</g>
</svg>
